I tensorflow/stream_executor/dso_loader.cc:111] successfully opened CUDA library libcublas.so.8.0 locally
I tensorflow/stream_executor/dso_loader.cc:111] successfully opened CUDA library libcudnn.so.5.1.5 locally
I tensorflow/stream_executor/dso_loader.cc:111] successfully opened CUDA library libcufft.so.8.0 locally
I tensorflow/stream_executor/dso_loader.cc:111] successfully opened CUDA library libcuda.so.1 locally
I tensorflow/stream_executor/dso_loader.cc:111] successfully opened CUDA library libcurand.so.8.0 locally
I tensorflow/stream_executor/cuda/cuda_gpu_executor.cc:892] ARM has no NUMA node, hardcoding to return zero
I tensorflow/core/common_runtime/gpu/gpu_device.cc:951] Found device 0 with properties: 
name: NVIDIA Tegra X1
major: 5 minor: 3 memoryClockRate (GHz) 0.9984
pciBusID 0000:00:00.0
Total memory: 3.90GiB
Free memory: 1.80GiB
I tensorflow/core/common_runtime/gpu/gpu_device.cc:972] DMA: 0 
I tensorflow/core/common_runtime/gpu/gpu_device.cc:982] 0:   Y 
I tensorflow/core/common_runtime/gpu/gpu_device.cc:1041] Creating TensorFlow device (/gpu:0) -> (device: 0, name: NVIDIA Tegra X1, pci bus id: 0000:00:00.0)
W tensorflow/core/common_runtime/bfc_allocator.cc:213] Ran out of memory trying to allocate 2.35GiB. The caller indicates that this is not a failure, but may mean that there could be performance gains if more memory is available.
I tensorflow/core/common_runtime/gpu/gpu_device.cc:1041] Creating TensorFlow device (/gpu:0) -> (device: 0, name: NVIDIA Tegra X1, pci bus id: 0000:00:00.0)
I tensorflow/core/common_runtime/gpu/gpu_device.cc:1041] Creating TensorFlow device (/gpu:0) -> (device: 0, name: NVIDIA Tegra X1, pci bus id: 0000:00:00.0)
I tensorflow/core/common_runtime/gpu/gpu_device.cc:1041] Creating TensorFlow device (/gpu:0) -> (device: 0, name: NVIDIA Tegra X1, pci bus id: 0000:00:00.0)
I tensorflow/core/common_runtime/gpu/gpu_device.cc:1041] Creating TensorFlow device (/gpu:0) -> (device: 0, name: NVIDIA Tegra X1, pci bus id: 0000:00:00.0)
I tensorflow/core/common_runtime/gpu/gpu_device.cc:1041] Creating TensorFlow device (/gpu:0) -> (device: 0, name: NVIDIA Tegra X1, pci bus id: 0000:00:00.0)
I tensorflow/core/common_runtime/gpu/gpu_device.cc:1041] Creating TensorFlow device (/gpu:0) -> (device: 0, name: NVIDIA Tegra X1, pci bus id: 0000:00:00.0)
I tensorflow/core/common_runtime/gpu/gpu_device.cc:1041] Creating TensorFlow device (/gpu:0) -> (device: 0, name: NVIDIA Tegra X1, pci bus id: 0000:00:00.0)
I tensorflow/core/common_runtime/gpu/gpu_device.cc:1041] Creating TensorFlow device (/gpu:0) -> (device: 0, name: NVIDIA Tegra X1, pci bus id: 0000:00:00.0)
I tensorflow/core/common_runtime/gpu/gpu_device.cc:1041] Creating TensorFlow device (/gpu:0) -> (device: 0, name: NVIDIA Tegra X1, pci bus id: 0000:00:00.0)
I tensorflow/core/common_runtime/gpu/gpu_device.cc:1041] Creating TensorFlow device (/gpu:0) -> (device: 0, name: NVIDIA Tegra X1, pci bus id: 0000:00:00.0)
I tensorflow/core/common_runtime/gpu/gpu_device.cc:1041] Creating TensorFlow device (/gpu:0) -> (device: 0, name: NVIDIA Tegra X1, pci bus id: 0000:00:00.0)
W tensorflow/core/common_runtime/bfc_allocator.cc:213] Ran out of memory trying to allocate 1.08GiB. The caller indicates that this is not a failure, but may mean that there could be performance gains if more memory is available.
W tensorflow/core/common_runtime/bfc_allocator.cc:213] Ran out of memory trying to allocate 1.08GiB. The caller indicates that this is not a failure, but may mean that there could be performance gains if more memory is available.
W tensorflow/core/common_runtime/bfc_allocator.cc:213] Ran out of memory trying to allocate 1.08GiB. The caller indicates that this is not a failure, but may mean that there could be performance gains if more memory is available.
I tensorflow/core/common_runtime/gpu/gpu_device.cc:1041] Creating TensorFlow device (/gpu:0) -> (device: 0, name: NVIDIA Tegra X1, pci bus id: 0000:00:00.0)
I tensorflow/core/common_runtime/gpu/gpu_device.cc:1041] Creating TensorFlow device (/gpu:0) -> (device: 0, name: NVIDIA Tegra X1, pci bus id: 0000:00:00.0)
W tensorflow/core/common_runtime/bfc_allocator.cc:213] Ran out of memory trying to allocate 2.05GiB. The caller indicates that this is not a failure, but may mean that there could be performance gains if more memory is available.
W tensorflow/core/common_runtime/bfc_allocator.cc:213] Ran out of memory trying to allocate 1.02GiB. The caller indicates that this is not a failure, but may mean that there could be performance gains if more memory is available.
W tensorflow/core/common_runtime/bfc_allocator.cc:213] Ran out of memory trying to allocate 2.05GiB. The caller indicates that this is not a failure, but may mean that there could be performance gains if more memory is available.
W tensorflow/core/common_runtime/bfc_allocator.cc:213] Ran out of memory trying to allocate 1.04GiB. The caller indicates that this is not a failure, but may mean that there could be performance gains if more memory is available.
W tensorflow/core/common_runtime/bfc_allocator.cc:213] Ran out of memory trying to allocate 2.07GiB. The caller indicates that this is not a failure, but may mean that there could be performance gains if more memory is available.
W tensorflow/core/common_runtime/bfc_allocator.cc:213] Ran out of memory trying to allocate 2.07GiB. The caller indicates that this is not a failure, but may mean that there could be performance gains if more memory is available.
I tensorflow/core/common_runtime/gpu/gpu_device.cc:1041] Creating TensorFlow device (/gpu:0) -> (device: 0, name: NVIDIA Tegra X1, pci bus id: 0000:00:00.0)
I tensorflow/core/common_runtime/bfc_allocator.cc:639] Bin (256): 	Total Chunks: 0, Chunks in use: 0 0B allocated for chunks. 0B client-requested for chunks. 0B in use in bin. 0B client-requested in use in bin.
I tensorflow/core/common_runtime/bfc_allocator.cc:639] Bin (512): 	Total Chunks: 0, Chunks in use: 0 0B allocated for chunks. 0B client-requested for chunks. 0B in use in bin. 0B client-requested in use in bin.
I tensorflow/core/common_runtime/bfc_allocator.cc:639] Bin (1024): 	Total Chunks: 0, Chunks in use: 0 0B allocated for chunks. 0B client-requested for chunks. 0B in use in bin. 0B client-requested in use in bin.
I tensorflow/core/common_runtime/bfc_allocator.cc:639] Bin (2048): 	Total Chunks: 0, Chunks in use: 0 0B allocated for chunks. 0B client-requested for chunks. 0B in use in bin. 0B client-requested in use in bin.
I tensorflow/core/common_runtime/bfc_allocator.cc:639] Bin (4096): 	Total Chunks: 1, Chunks in use: 0 6.8KiB allocated for chunks. 6.8KiB client-requested for chunks. 0B in use in bin. 0B client-requested in use in bin.
I tensorflow/core/common_runtime/bfc_allocator.cc:639] Bin (8192): 	Total Chunks: 0, Chunks in use: 0 0B allocated for chunks. 0B client-requested for chunks. 0B in use in bin. 0B client-requested in use in bin.
I tensorflow/core/common_runtime/bfc_allocator.cc:639] Bin (16384): 	Total Chunks: 0, Chunks in use: 0 0B allocated for chunks. 0B client-requested for chunks. 0B in use in bin. 0B client-requested in use in bin.
I tensorflow/core/common_runtime/bfc_allocator.cc:639] Bin (32768): 	Total Chunks: 0, Chunks in use: 0 0B allocated for chunks. 0B client-requested for chunks. 0B in use in bin. 0B client-requested in use in bin.
I tensorflow/core/common_runtime/bfc_allocator.cc:639] Bin (65536): 	Total Chunks: 0, Chunks in use: 0 0B allocated for chunks. 0B client-requested for chunks. 0B in use in bin. 0B client-requested in use in bin.
I tensorflow/core/common_runtime/bfc_allocator.cc:639] Bin (131072): 	Total Chunks: 1, Chunks in use: 0 147.2KiB allocated for chunks. 144.0KiB client-requested for chunks. 0B in use in bin. 0B client-requested in use in bin.
I tensorflow/core/common_runtime/bfc_allocator.cc:639] Bin (262144): 	Total Chunks: 2, Chunks in use: 0 649.5KiB allocated for chunks. 9.28MiB client-requested for chunks. 0B in use in bin. 0B client-requested in use in bin.
I tensorflow/core/common_runtime/bfc_allocator.cc:639] Bin (524288): 	Total Chunks: 1, Chunks in use: 0 576.0KiB allocated for chunks. 576.0KiB client-requested for chunks. 0B in use in bin. 0B client-requested in use in bin.
I tensorflow/core/common_runtime/bfc_allocator.cc:639] Bin (1048576): 	Total Chunks: 1, Chunks in use: 0 1.52MiB allocated for chunks. 1.12MiB client-requested for chunks. 0B in use in bin. 0B client-requested in use in bin.
I tensorflow/core/common_runtime/bfc_allocator.cc:639] Bin (2097152): 	Total Chunks: 1, Chunks in use: 0 2.43MiB allocated for chunks. 2.25MiB client-requested for chunks. 0B in use in bin. 0B client-requested in use in bin.
I tensorflow/core/common_runtime/bfc_allocator.cc:639] Bin (4194304): 	Total Chunks: 2, Chunks in use: 0 10.25MiB allocated for chunks. 4.50MiB client-requested for chunks. 0B in use in bin. 0B client-requested in use in bin.
I tensorflow/core/common_runtime/bfc_allocator.cc:639] Bin (8388608): 	Total Chunks: 1, Chunks in use: 0 9.00MiB allocated for chunks. 9.00MiB client-requested for chunks. 0B in use in bin. 0B client-requested in use in bin.
I tensorflow/core/common_runtime/bfc_allocator.cc:639] Bin (16777216): 	Total Chunks: 0, Chunks in use: 0 0B allocated for chunks. 0B client-requested for chunks. 0B in use in bin. 0B client-requested in use in bin.
I tensorflow/core/common_runtime/bfc_allocator.cc:639] Bin (33554432): 	Total Chunks: 0, Chunks in use: 0 0B allocated for chunks. 0B client-requested for chunks. 0B in use in bin. 0B client-requested in use in bin.
I tensorflow/core/common_runtime/bfc_allocator.cc:639] Bin (67108864): 	Total Chunks: 1, Chunks in use: 0 107.15MiB allocated for chunks. 4.00MiB client-requested for chunks. 0B in use in bin. 0B client-requested in use in bin.
I tensorflow/core/common_runtime/bfc_allocator.cc:639] Bin (134217728): 	Total Chunks: 0, Chunks in use: 0 0B allocated for chunks. 0B client-requested for chunks. 0B in use in bin. 0B client-requested in use in bin.
I tensorflow/core/common_runtime/bfc_allocator.cc:639] Bin (268435456): 	Total Chunks: 0, Chunks in use: 0 0B allocated for chunks. 0B client-requested for chunks. 0B in use in bin. 0B client-requested in use in bin.
I tensorflow/core/common_runtime/bfc_allocator.cc:656] Bin for 392.00MiB was 256.00MiB, Chunk State: 
I tensorflow/core/common_runtime/bfc_allocator.cc:674] Chunk at 0x5c0b20000 of size 1280
I tensorflow/core/common_runtime/bfc_allocator.cc:674] Chunk at 0x5c0b20500 of size 256
I tensorflow/core/common_runtime/bfc_allocator.cc:674] Chunk at 0x5c0b20600 of size 16384
I tensorflow/core/common_runtime/bfc_allocator.cc:674] Chunk at 0x5c0b24600 of size 256
I tensorflow/core/common_runtime/bfc_allocator.cc:674] Chunk at 0x5c0b24700 of size 4096
I tensorflow/core/common_runtime/bfc_allocator.cc:674] Chunk at 0x5c0b25700 of size 256
I tensorflow/core/common_runtime/bfc_allocator.cc:674] Chunk at 0x5c0b25800 of size 256
I tensorflow/core/common_runtime/bfc_allocator.cc:674] Chunk at 0x5c0b25900 of size 256
I tensorflow/core/common_runtime/bfc_allocator.cc:674] Chunk at 0x5c0b25a00 of size 256
I tensorflow/core/common_runtime/bfc_allocator.cc:674] Chunk at 0x5c0b25b00 of size 256
I tensorflow/core/common_runtime/bfc_allocator.cc:674] Chunk at 0x5c0b25c00 of size 256
I tensorflow/core/common_runtime/bfc_allocator.cc:674] Chunk at 0x5c0b25d00 of size 256
I tensorflow/core/common_runtime/bfc_allocator.cc:674] Chunk at 0x5c0b25e00 of size 256
I tensorflow/core/common_runtime/bfc_allocator.cc:674] Chunk at 0x5c0b25f00 of size 256
I tensorflow/core/common_runtime/bfc_allocator.cc:674] Chunk at 0x5c0b26000 of size 256
I tensorflow/core/common_runtime/bfc_allocator.cc:674] Chunk at 0x5c0b26100 of size 256
I tensorflow/core/common_runtime/bfc_allocator.cc:674] Chunk at 0x5c0b27d00 of size 256
I tensorflow/core/common_runtime/bfc_allocator.cc:674] Chunk at 0x5c0b27e00 of size 256
I tensorflow/core/common_runtime/bfc_allocator.cc:674] Chunk at 0x5c0b27f00 of size 512
I tensorflow/core/common_runtime/bfc_allocator.cc:674] Chunk at 0x5c0b28100 of size 512
I tensorflow/core/common_runtime/bfc_allocator.cc:674] Chunk at 0x5c0b28300 of size 1024
I tensorflow/core/common_runtime/bfc_allocator.cc:674] Chunk at 0x5c0b28700 of size 1024
I tensorflow/core/common_runtime/bfc_allocator.cc:674] Chunk at 0x5c0b28b00 of size 1024
I tensorflow/core/common_runtime/bfc_allocator.cc:674] Chunk at 0x5c0b28f00 of size 1024
I tensorflow/core/common_runtime/bfc_allocator.cc:674] Chunk at 0x5c0b29300 of size 2048
I tensorflow/core/common_runtime/bfc_allocator.cc:674] Chunk at 0x5c0b29b00 of size 2048
I tensorflow/core/common_runtime/bfc_allocator.cc:674] Chunk at 0x5c0b2a300 of size 2048
I tensorflow/core/common_runtime/bfc_allocator.cc:674] Chunk at 0x5c0b2ab00 of size 2048
I tensorflow/core/common_runtime/bfc_allocator.cc:674] Chunk at 0x5c0b2b300 of size 2304
I tensorflow/core/common_runtime/bfc_allocator.cc:674] Chunk at 0x5c0b2bc00 of size 1280
I tensorflow/core/common_runtime/bfc_allocator.cc:674] Chunk at 0x5c0b2c100 of size 512
I tensorflow/core/common_runtime/bfc_allocator.cc:674] Chunk at 0x5c0b2c300 of size 1024
I tensorflow/core/common_runtime/bfc_allocator.cc:674] Chunk at 0x5c0b2c700 of size 1024
I tensorflow/core/common_runtime/bfc_allocator.cc:674] Chunk at 0x5c0b2cb00 of size 1024
I tensorflow/core/common_runtime/bfc_allocator.cc:674] Chunk at 0x5c0b2cf00 of size 2048
I tensorflow/core/common_runtime/bfc_allocator.cc:674] Chunk at 0x5c0b2d700 of size 2048
I tensorflow/core/common_runtime/bfc_allocator.cc:674] Chunk at 0x5c0b2df00 of size 2048
I tensorflow/core/common_runtime/bfc_allocator.cc:674] Chunk at 0x5c0b2e700 of size 2048
I tensorflow/core/common_runtime/bfc_allocator.cc:674] Chunk at 0x5c0b2ef00 of size 2048
I tensorflow/core/common_runtime/bfc_allocator.cc:674] Chunk at 0x5c0b2f700 of size 2048
I tensorflow/core/common_runtime/bfc_allocator.cc:674] Chunk at 0x5c0b2ff00 of size 16384
I tensorflow/core/common_runtime/bfc_allocator.cc:674] Chunk at 0x5c0b33f00 of size 26880
I tensorflow/core/common_runtime/bfc_allocator.cc:674] Chunk at 0x5c0b3a800 of size 1280
I tensorflow/core/common_runtime/bfc_allocator.cc:674] Chunk at 0x5c0b3ad00 of size 2304
I tensorflow/core/common_runtime/bfc_allocator.cc:674] Chunk at 0x5c0b3b600 of size 1280
I tensorflow/core/common_runtime/bfc_allocator.cc:674] Chunk at 0x5c0b3bb00 of size 2304
I tensorflow/core/common_runtime/bfc_allocator.cc:674] Chunk at 0x5c0bcc400 of size 294912
I tensorflow/core/common_runtime/bfc_allocator.cc:674] Chunk at 0x5c0c6ea00 of size 1280
I tensorflow/core/common_runtime/bfc_allocator.cc:674] Chunk at 0x5c0c6ef00 of size 1280
I tensorflow/core/common_runtime/bfc_allocator.cc:674] Chunk at 0x5c0c6f400 of size 589824
I tensorflow/core/common_runtime/bfc_allocator.cc:674] Chunk at 0x5c0cff400 of size 1436160
I tensorflow/core/common_runtime/bfc_allocator.cc:674] Chunk at 0x5c0e5de00 of size 1280
I tensorflow/core/common_runtime/bfc_allocator.cc:674] Chunk at 0x5c0e5e300 of size 7288576
I tensorflow/core/common_runtime/bfc_allocator.cc:674] Chunk at 0x5c1576700 of size 415488
I tensorflow/core/common_runtime/bfc_allocator.cc:674] Chunk at 0x5c15dbe00 of size 1280
I tensorflow/core/common_runtime/bfc_allocator.cc:674] Chunk at 0x5c15dc300 of size 256
I tensorflow/core/common_runtime/bfc_allocator.cc:674] Chunk at 0x5c15dc400 of size 256
I tensorflow/core/common_runtime/bfc_allocator.cc:674] Chunk at 0x5c15dc500 of size 256
I tensorflow/core/common_runtime/bfc_allocator.cc:674] Chunk at 0x5c15dc600 of size 512
I tensorflow/core/common_runtime/bfc_allocator.cc:674] Chunk at 0x5c15dc800 of size 256
I tensorflow/core/common_runtime/bfc_allocator.cc:674] Chunk at 0x5c15dc900 of size 512
I tensorflow/core/common_runtime/bfc_allocator.cc:674] Chunk at 0x5c15dcb00 of size 256
I tensorflow/core/common_runtime/bfc_allocator.cc:674] Chunk at 0x5c15dcc00 of size 1024
I tensorflow/core/common_runtime/bfc_allocator.cc:674] Chunk at 0x5c15dd000 of size 256
I tensorflow/core/common_runtime/bfc_allocator.cc:674] Chunk at 0x5c15dd100 of size 1024
I tensorflow/core/common_runtime/bfc_allocator.cc:674] Chunk at 0x5c15dd500 of size 256
I tensorflow/core/common_runtime/bfc_allocator.cc:674] Chunk at 0x5c15dd600 of size 1024
I tensorflow/core/common_runtime/bfc_allocator.cc:674] Chunk at 0x5c15dda00 of size 256
I tensorflow/core/common_runtime/bfc_allocator.cc:674] Chunk at 0x5c15ddb00 of size 1024
I tensorflow/core/common_runtime/bfc_allocator.cc:674] Chunk at 0x5c15ddf00 of size 256
I tensorflow/core/common_runtime/bfc_allocator.cc:674] Chunk at 0x5c15de000 of size 2048
I tensorflow/core/common_runtime/bfc_allocator.cc:674] Chunk at 0x5c15de800 of size 256
I tensorflow/core/common_runtime/bfc_allocator.cc:674] Chunk at 0x5c15de900 of size 2048
I tensorflow/core/common_runtime/bfc_allocator.cc:674] Chunk at 0x5c15df100 of size 256
I tensorflow/core/common_runtime/bfc_allocator.cc:674] Chunk at 0x5c15df200 of size 3072
I tensorflow/core/common_runtime/bfc_allocator.cc:674] Chunk at 0x5c15dfe00 of size 4096
I tensorflow/core/common_runtime/bfc_allocator.cc:674] Chunk at 0x5c15e0e00 of size 6912
I tensorflow/core/common_runtime/bfc_allocator.cc:674] Chunk at 0x5c1ee2900 of size 16384000
I tensorflow/core/common_runtime/bfc_allocator.cc:674] Chunk at 0x5c2e82900 of size 18232832
I tensorflow/core/common_runtime/bfc_allocator.cc:674] Chunk at 0x5c3fe5f00 of size 29425664
I tensorflow/core/common_runtime/bfc_allocator.cc:674] Chunk at 0x5c5bf5f00 of size 3675136
I tensorflow/core/common_runtime/bfc_allocator.cc:674] Chunk at 0x5c5f77300 of size 10147840
I tensorflow/core/common_runtime/bfc_allocator.cc:674] Chunk at 0x5c6f64b00 of size 9437184
I tensorflow/core/common_runtime/bfc_allocator.cc:674] Chunk at 0x5c7864b00 of size 9437184
I tensorflow/core/common_runtime/bfc_allocator.cc:674] Chunk at 0x5c8164b00 of size 11463680
I tensorflow/core/common_runtime/bfc_allocator.cc:674] Chunk at 0x5c8c53700 of size 1280
I tensorflow/core/common_runtime/bfc_allocator.cc:674] Chunk at 0x5c8c53c00 of size 1536
I tensorflow/core/common_runtime/bfc_allocator.cc:674] Chunk at 0x5c8c54200 of size 1280
I tensorflow/core/common_runtime/bfc_allocator.cc:674] Chunk at 0x5c8c54700 of size 256
I tensorflow/core/common_runtime/bfc_allocator.cc:674] Chunk at 0x5c8c54800 of size 256
I tensorflow/core/common_runtime/bfc_allocator.cc:674] Chunk at 0x5c8c54900 of size 256
I tensorflow/core/common_runtime/bfc_allocator.cc:674] Chunk at 0x5c8c54a00 of size 256
I tensorflow/core/common_runtime/bfc_allocator.cc:674] Chunk at 0x5c8c54b00 of size 256
I tensorflow/core/common_runtime/bfc_allocator.cc:674] Chunk at 0x5c8c54c00 of size 1280
I tensorflow/core/common_runtime/bfc_allocator.cc:674] Chunk at 0x5c8c55100 of size 256
I tensorflow/core/common_runtime/bfc_allocator.cc:674] Chunk at 0x5c8c55200 of size 256
I tensorflow/core/common_runtime/bfc_allocator.cc:674] Chunk at 0x5c8c55300 of size 256
I tensorflow/core/common_runtime/bfc_allocator.cc:674] Chunk at 0x5c8c55400 of size 256
I tensorflow/core/common_runtime/bfc_allocator.cc:674] Chunk at 0x5c8c55500 of size 256
I tensorflow/core/common_runtime/bfc_allocator.cc:674] Chunk at 0x5c8c55600 of size 512
I tensorflow/core/common_runtime/bfc_allocator.cc:674] Chunk at 0x5c8c55800 of size 256
I tensorflow/core/common_runtime/bfc_allocator.cc:674] Chunk at 0x5c8c55900 of size 512
I tensorflow/core/common_runtime/bfc_allocator.cc:674] Chunk at 0x5c8c55b00 of size 256
I tensorflow/core/common_runtime/bfc_allocator.cc:674] Chunk at 0x5c8c55c00 of size 1024
I tensorflow/core/common_runtime/bfc_allocator.cc:674] Chunk at 0x5c8c56000 of size 256
I tensorflow/core/common_runtime/bfc_allocator.cc:674] Chunk at 0x5c8c56100 of size 1024
I tensorflow/core/common_runtime/bfc_allocator.cc:674] Chunk at 0x5c8c56500 of size 256
I tensorflow/core/common_runtime/bfc_allocator.cc:674] Chunk at 0x5c8c56600 of size 1024
I tensorflow/core/common_runtime/bfc_allocator.cc:674] Chunk at 0x5c8c56a00 of size 256
I tensorflow/core/common_runtime/bfc_allocator.cc:674] Chunk at 0x5c8c56b00 of size 256
I tensorflow/core/common_runtime/bfc_allocator.cc:674] Chunk at 0x5c8c56c00 of size 256
I tensorflow/core/common_runtime/bfc_allocator.cc:674] Chunk at 0x5c8c56d00 of size 256
I tensorflow/core/common_runtime/bfc_allocator.cc:674] Chunk at 0x5c8c56e00 of size 256
I tensorflow/core/common_runtime/bfc_allocator.cc:674] Chunk at 0x5c8c56f00 of size 256
I tensorflow/core/common_runtime/bfc_allocator.cc:674] Chunk at 0x5c8c57000 of size 256
I tensorflow/core/common_runtime/bfc_allocator.cc:674] Chunk at 0x5c8c57100 of size 256
I tensorflow/core/common_runtime/bfc_allocator.cc:674] Chunk at 0x5c8c57200 of size 18059264
I tensorflow/core/common_runtime/bfc_allocator.cc:674] Chunk at 0x5c9d90200 of size 606976
I tensorflow/core/common_runtime/bfc_allocator.cc:674] Chunk at 0x5c9e24500 of size 2048
I tensorflow/core/common_runtime/bfc_allocator.cc:674] Chunk at 0x5c9e24d00 of size 2048
I tensorflow/core/common_runtime/bfc_allocator.cc:674] Chunk at 0x5c9e25500 of size 2048
I tensorflow/core/common_runtime/bfc_allocator.cc:674] Chunk at 0x5c9e25d00 of size 16384
I tensorflow/core/common_runtime/bfc_allocator.cc:674] Chunk at 0x5c9e29d00 of size 26624
I tensorflow/core/common_runtime/bfc_allocator.cc:674] Chunk at 0x5c9e30500 of size 158208
I tensorflow/core/common_runtime/bfc_allocator.cc:674] Chunk at 0x5c9e56f00 of size 256
I tensorflow/core/common_runtime/bfc_allocator.cc:674] Chunk at 0x5c9e57000 of size 2048
I tensorflow/core/common_runtime/bfc_allocator.cc:674] Chunk at 0x5c9e57800 of size 256
I tensorflow/core/common_runtime/bfc_allocator.cc:674] Chunk at 0x5c9e57900 of size 2048
I tensorflow/core/common_runtime/bfc_allocator.cc:674] Chunk at 0x5c9e58100 of size 256
I tensorflow/core/common_runtime/bfc_allocator.cc:674] Chunk at 0x5c9e58200 of size 2048
I tensorflow/core/common_runtime/bfc_allocator.cc:674] Chunk at 0x5c9e58a00 of size 256
I tensorflow/core/common_runtime/bfc_allocator.cc:674] Chunk at 0x5c9e58b00 of size 2048
I tensorflow/core/common_runtime/bfc_allocator.cc:674] Chunk at 0x5c9e59300 of size 256
I tensorflow/core/common_runtime/bfc_allocator.cc:674] Chunk at 0x5c9e59400 of size 2048
I tensorflow/core/common_runtime/bfc_allocator.cc:674] Chunk at 0x5c9e59c00 of size 256
I tensorflow/core/common_runtime/bfc_allocator.cc:674] Chunk at 0x5c9e59d00 of size 26368
I tensorflow/core/common_runtime/bfc_allocator.cc:674] Chunk at 0x5c9e60400 of size 2048
I tensorflow/core/common_runtime/bfc_allocator.cc:674] Chunk at 0x5c9e60c00 of size 12050944
I tensorflow/core/common_runtime/bfc_allocator.cc:674] Chunk at 0x5ca9dee00 of size 9437184
I tensorflow/core/common_runtime/bfc_allocator.cc:674] Chunk at 0x5cb2dee00 of size 12133376
I tensorflow/core/common_runtime/bfc_allocator.cc:674] Chunk at 0x5cbe71200 of size 2359296
I tensorflow/core/common_runtime/bfc_allocator.cc:674] Chunk at 0x5cc4b1200 of size 2048
I tensorflow/core/common_runtime/bfc_allocator.cc:674] Chunk at 0x5cc4b1a00 of size 2048
I tensorflow/core/common_runtime/bfc_allocator.cc:674] Chunk at 0x5cc4b2200 of size 2048
I tensorflow/core/common_runtime/bfc_allocator.cc:674] Chunk at 0x5cc4b2a00 of size 2048
I tensorflow/core/common_runtime/bfc_allocator.cc:674] Chunk at 0x5cc4b3200 of size 2048
I tensorflow/core/common_runtime/bfc_allocator.cc:674] Chunk at 0x5cc4b3a00 of size 2048
I tensorflow/core/common_runtime/bfc_allocator.cc:674] Chunk at 0x5cc4b4200 of size 256
I tensorflow/core/common_runtime/bfc_allocator.cc:674] Chunk at 0x5cc4b4300 of size 256
I tensorflow/core/common_runtime/bfc_allocator.cc:674] Chunk at 0x5cc4b4400 of size 256
I tensorflow/core/common_runtime/bfc_allocator.cc:674] Chunk at 0x5cc4b4500 of size 256
I tensorflow/core/common_runtime/bfc_allocator.cc:674] Chunk at 0x5cc4b4600 of size 256
I tensorflow/core/common_runtime/bfc_allocator.cc:674] Chunk at 0x5cc4b4700 of size 256
I tensorflow/core/common_runtime/bfc_allocator.cc:674] Chunk at 0x5cc4b4800 of size 256
I tensorflow/core/common_runtime/bfc_allocator.cc:674] Chunk at 0x5cc4b4900 of size 256
I tensorflow/core/common_runtime/bfc_allocator.cc:674] Chunk at 0x5cc4b4a00 of size 256
I tensorflow/core/common_runtime/bfc_allocator.cc:674] Chunk at 0x5cc4b4b00 of size 256
I tensorflow/core/common_runtime/bfc_allocator.cc:674] Chunk at 0x5cc4b4c00 of size 256
I tensorflow/core/common_runtime/bfc_allocator.cc:674] Chunk at 0x5cc4b4d00 of size 256
I tensorflow/core/common_runtime/bfc_allocator.cc:674] Chunk at 0x5cc4b4e00 of size 256
I tensorflow/core/common_runtime/bfc_allocator.cc:674] Chunk at 0x5cc4b4f00 of size 256
I tensorflow/core/common_runtime/bfc_allocator.cc:674] Chunk at 0x5cc4b5000 of size 512
I tensorflow/core/common_runtime/bfc_allocator.cc:674] Chunk at 0x5cc4b5200 of size 67108864
I tensorflow/core/common_runtime/bfc_allocator.cc:674] Chunk at 0x5d6fdc300 of size 2359296
I tensorflow/core/common_runtime/bfc_allocator.cc:674] Chunk at 0x5d721c300 of size 9398272
I tensorflow/core/common_runtime/bfc_allocator.cc:674] Chunk at 0x5d7b12b00 of size 16384
I tensorflow/core/common_runtime/bfc_allocator.cc:674] Chunk at 0x5d7b16b00 of size 16384
I tensorflow/core/common_runtime/bfc_allocator.cc:674] Chunk at 0x5d7b1ab00 of size 4096
I tensorflow/core/common_runtime/bfc_allocator.cc:674] Chunk at 0x5d7b1bb00 of size 2359296
I tensorflow/core/common_runtime/bfc_allocator.cc:674] Chunk at 0x5d7fc9300 of size 90761216
I tensorflow/core/common_runtime/bfc_allocator.cc:674] Chunk at 0x5dd7dc600 of size 3407872
I tensorflow/core/common_runtime/bfc_allocator.cc:674] Chunk at 0x5ddb1c600 of size 9437184
I tensorflow/core/common_runtime/bfc_allocator.cc:674] Chunk at 0x5de41c600 of size 9706496
I tensorflow/core/common_runtime/bfc_allocator.cc:674] Chunk at 0x5ded5e200 of size 11820544
I tensorflow/core/common_runtime/bfc_allocator.cc:674] Chunk at 0x5df8ec000 of size 4096
I tensorflow/core/common_runtime/bfc_allocator.cc:674] Chunk at 0x5df8ed000 of size 6912
I tensorflow/core/common_runtime/bfc_allocator.cc:674] Chunk at 0x5df8eeb00 of size 283904
I tensorflow/core/common_runtime/bfc_allocator.cc:674] Chunk at 0x5df934000 of size 1394176
I tensorflow/core/common_runtime/bfc_allocator.cc:674] Chunk at 0x5dfa88600 of size 433737216
I tensorflow/core/common_runtime/bfc_allocator.cc:674] Chunk at 0x5f982d400 of size 768367616
I tensorflow/core/common_runtime/bfc_allocator.cc:683] Free at 0x5c0b26200 of size 6912
I tensorflow/core/common_runtime/bfc_allocator.cc:683] Free at 0x5c0b3c400 of size 589824
I tensorflow/core/common_runtime/bfc_allocator.cc:683] Free at 0x5c0c14400 of size 370176
I tensorflow/core/common_runtime/bfc_allocator.cc:683] Free at 0x5c1551a00 of size 150784
I tensorflow/core/common_runtime/bfc_allocator.cc:683] Free at 0x5c15e2900 of size 9437184
I tensorflow/core/common_runtime/bfc_allocator.cc:683] Free at 0x5c6924b00 of size 6553600
I tensorflow/core/common_runtime/bfc_allocator.cc:683] Free at 0x5cc0b1200 of size 4194304
I tensorflow/core/common_runtime/bfc_allocator.cc:683] Free at 0x5d04b5200 of size 112357632
I tensorflow/core/common_runtime/bfc_allocator.cc:683] Free at 0x5d7d5bb00 of size 2545664
I tensorflow/core/common_runtime/bfc_allocator.cc:683] Free at 0x5dd657b00 of size 1592064
I tensorflow/core/common_runtime/bfc_allocator.cc:683] Free at 0x5df8a4000 of size 294912
I tensorflow/core/common_runtime/bfc_allocator.cc:689]      Summary of in-use Chunks by size: 
I tensorflow/core/common_runtime/bfc_allocator.cc:692] 68 Chunks of size 256 totalling 17.0KiB
I tensorflow/core/common_runtime/bfc_allocator.cc:692] 8 Chunks of size 512 totalling 4.0KiB
I tensorflow/core/common_runtime/bfc_allocator.cc:692] 14 Chunks of size 1024 totalling 14.0KiB
I tensorflow/core/common_runtime/bfc_allocator.cc:692] 11 Chunks of size 1280 totalling 13.8KiB
I tensorflow/core/common_runtime/bfc_allocator.cc:692] 1 Chunks of size 1536 totalling 1.5KiB
I tensorflow/core/common_runtime/bfc_allocator.cc:692] 27 Chunks of size 2048 totalling 54.0KiB
I tensorflow/core/common_runtime/bfc_allocator.cc:692] 3 Chunks of size 2304 totalling 6.8KiB
I tensorflow/core/common_runtime/bfc_allocator.cc:692] 1 Chunks of size 3072 totalling 3.0KiB
I tensorflow/core/common_runtime/bfc_allocator.cc:692] 4 Chunks of size 4096 totalling 16.0KiB
I tensorflow/core/common_runtime/bfc_allocator.cc:692] 2 Chunks of size 6912 totalling 13.5KiB
I tensorflow/core/common_runtime/bfc_allocator.cc:692] 5 Chunks of size 16384 totalling 80.0KiB
I tensorflow/core/common_runtime/bfc_allocator.cc:692] 1 Chunks of size 26368 totalling 25.8KiB
I tensorflow/core/common_runtime/bfc_allocator.cc:692] 1 Chunks of size 26624 totalling 26.0KiB
I tensorflow/core/common_runtime/bfc_allocator.cc:692] 1 Chunks of size 26880 totalling 26.2KiB
I tensorflow/core/common_runtime/bfc_allocator.cc:692] 1 Chunks of size 158208 totalling 154.5KiB
I tensorflow/core/common_runtime/bfc_allocator.cc:692] 1 Chunks of size 283904 totalling 277.2KiB
I tensorflow/core/common_runtime/bfc_allocator.cc:692] 1 Chunks of size 294912 totalling 288.0KiB
I tensorflow/core/common_runtime/bfc_allocator.cc:692] 1 Chunks of size 415488 totalling 405.8KiB
I tensorflow/core/common_runtime/bfc_allocator.cc:692] 1 Chunks of size 589824 totalling 576.0KiB
I tensorflow/core/common_runtime/bfc_allocator.cc:692] 1 Chunks of size 606976 totalling 592.8KiB
I tensorflow/core/common_runtime/bfc_allocator.cc:692] 1 Chunks of size 1394176 totalling 1.33MiB
I tensorflow/core/common_runtime/bfc_allocator.cc:692] 1 Chunks of size 1436160 totalling 1.37MiB
I tensorflow/core/common_runtime/bfc_allocator.cc:692] 3 Chunks of size 2359296 totalling 6.75MiB
I tensorflow/core/common_runtime/bfc_allocator.cc:692] 1 Chunks of size 3407872 totalling 3.25MiB
I tensorflow/core/common_runtime/bfc_allocator.cc:692] 1 Chunks of size 3675136 totalling 3.50MiB
I tensorflow/core/common_runtime/bfc_allocator.cc:692] 1 Chunks of size 7288576 totalling 6.95MiB
I tensorflow/core/common_runtime/bfc_allocator.cc:692] 1 Chunks of size 9398272 totalling 8.96MiB
I tensorflow/core/common_runtime/bfc_allocator.cc:692] 4 Chunks of size 9437184 totalling 36.00MiB
I tensorflow/core/common_runtime/bfc_allocator.cc:692] 1 Chunks of size 9706496 totalling 9.26MiB
I tensorflow/core/common_runtime/bfc_allocator.cc:692] 1 Chunks of size 10147840 totalling 9.68MiB
I tensorflow/core/common_runtime/bfc_allocator.cc:692] 1 Chunks of size 11463680 totalling 10.93MiB
I tensorflow/core/common_runtime/bfc_allocator.cc:692] 1 Chunks of size 11820544 totalling 11.27MiB
I tensorflow/core/common_runtime/bfc_allocator.cc:692] 1 Chunks of size 12050944 totalling 11.49MiB
I tensorflow/core/common_runtime/bfc_allocator.cc:692] 1 Chunks of size 12133376 totalling 11.57MiB
I tensorflow/core/common_runtime/bfc_allocator.cc:692] 1 Chunks of size 16384000 totalling 15.62MiB
I tensorflow/core/common_runtime/bfc_allocator.cc:692] 1 Chunks of size 18059264 totalling 17.22MiB
I tensorflow/core/common_runtime/bfc_allocator.cc:692] 1 Chunks of size 18232832 totalling 17.39MiB
I tensorflow/core/common_runtime/bfc_allocator.cc:692] 1 Chunks of size 29425664 totalling 28.06MiB
I tensorflow/core/common_runtime/bfc_allocator.cc:692] 1 Chunks of size 67108864 totalling 64.00MiB
I tensorflow/core/common_runtime/bfc_allocator.cc:692] 1 Chunks of size 90761216 totalling 86.56MiB
I tensorflow/core/common_runtime/bfc_allocator.cc:692] 1 Chunks of size 433737216 totalling 413.64MiB
I tensorflow/core/common_runtime/bfc_allocator.cc:692] 1 Chunks of size 768367616 totalling 732.77MiB
I tensorflow/core/common_runtime/bfc_allocator.cc:696] Sum Total of in-use chunks: 1.47GiB
I tensorflow/core/common_runtime/bfc_allocator.cc:698] Stats: 
Limit:                  1721577472
InUse:                  1583484416
MaxInUse:               1609770752
NumAllocs:                 4980599
MaxAllocSize:           1467565312

W tensorflow/core/common_runtime/bfc_allocator.cc:270] ****************_____******x****************************************************xxxxxxxxxxxxxxxxxxxx
W tensorflow/core/common_runtime/bfc_allocator.cc:271] Ran out of memory trying to allocate 392.00MiB.  See logs for memory state.
W tensorflow/core/framework/op_kernel.cc:968] Resource exhausted: OOM when allocating tensor with shape[7,7,512,4096]
Traceback (most recent call last):
  File "NetworkForwardPass.py", line 34, in <module>
    main()
  File "NetworkForwardPass.py", line 22, in main
    runner = NetworkRunner(model_index, NUMBER_OF_REPEATS)
  File "/home/ubuntu/Desktop/roborace_benchmark/Benchmarks/NetworkRunner.py", line 47, in __init__
    self.sess.run(tf.initialize_all_variables())
  File "/home/ubuntu/.local/lib/python2.7/site-packages/tensorflow/python/client/session.py", line 717, in run
    run_metadata_ptr)
  File "/home/ubuntu/.local/lib/python2.7/site-packages/tensorflow/python/client/session.py", line 915, in _run
    feed_dict_string, options, run_metadata)
  File "/home/ubuntu/.local/lib/python2.7/site-packages/tensorflow/python/client/session.py", line 965, in _do_run
    target_list, options, run_metadata)
  File "/home/ubuntu/.local/lib/python2.7/site-packages/tensorflow/python/client/session.py", line 985, in _do_call
    raise type(e)(node_def, op, message)
tensorflow.python.framework.errors.ResourceExhaustedError: OOM when allocating tensor with shape[7,7,512,4096]
	 [[Node: vgg_19/fc6/weights/Initializer/random_uniform/mul = Mul[T=DT_FLOAT, _class=["loc:@vgg_19/fc6/weights"], _device="/job:localhost/replica:0/task:0/gpu:0"](vgg_19/fc6/weights/Initializer/random_uniform/RandomUniform, vgg_19/fc6/weights/Initializer/random_uniform/sub)]]

Caused by op u'vgg_19/fc6/weights/Initializer/random_uniform/mul', defined at:
  File "NetworkForwardPass.py", line 34, in <module>
    main()
  File "NetworkForwardPass.py", line 22, in main
    runner = NetworkRunner(model_index, NUMBER_OF_REPEATS)
  File "/home/ubuntu/Desktop/roborace_benchmark/Benchmarks/NetworkRunner.py", line 45, in __init__
    self.model = self.get_model(self.inputs)
  File "/home/ubuntu/Desktop/roborace_benchmark/Benchmarks/NetworkRunner.py", line 208, in get_model
    out = self.get_vgg_19_out(inputs)
  File "/home/ubuntu/Desktop/roborace_benchmark/Benchmarks/NetworkRunner.py", line 151, in get_vgg_19_out
    outputs, _ = nets.vgg.vgg_19(inputs)
  File "/home/ubuntu/.local/lib/python2.7/site-packages/tensorflow/contrib/slim/python/slim/nets/vgg.py", line 224, in vgg_19
    net = slim.conv2d(net, 4096, [7, 7], padding='VALID', scope='fc6')
  File "/home/ubuntu/.local/lib/python2.7/site-packages/tensorflow/contrib/framework/python/ops/arg_scope.py", line 177, in func_with_args
    return func(*args, **current_args)
  File "/home/ubuntu/.local/lib/python2.7/site-packages/tensorflow/contrib/layers/python/layers/layers.py", line 433, in convolution2d
    trainable=trainable)
  File "/home/ubuntu/.local/lib/python2.7/site-packages/tensorflow/contrib/framework/python/ops/arg_scope.py", line 177, in func_with_args
    return func(*args, **current_args)
  File "/home/ubuntu/.local/lib/python2.7/site-packages/tensorflow/contrib/framework/python/ops/variables.py", line 269, in model_variable
    caching_device=caching_device, device=device)
  File "/home/ubuntu/.local/lib/python2.7/site-packages/tensorflow/contrib/framework/python/ops/arg_scope.py", line 177, in func_with_args
    return func(*args, **current_args)
  File "/home/ubuntu/.local/lib/python2.7/site-packages/tensorflow/contrib/framework/python/ops/variables.py", line 233, in variable
    caching_device=caching_device)
  File "/home/ubuntu/.local/lib/python2.7/site-packages/tensorflow/python/ops/variable_scope.py", line 1022, in get_variable
    custom_getter=custom_getter)
  File "/home/ubuntu/.local/lib/python2.7/site-packages/tensorflow/python/ops/variable_scope.py", line 849, in get_variable
    custom_getter=custom_getter)
  File "/home/ubuntu/.local/lib/python2.7/site-packages/tensorflow/python/ops/variable_scope.py", line 345, in get_variable
    validate_shape=validate_shape)
  File "/home/ubuntu/.local/lib/python2.7/site-packages/tensorflow/python/ops/variable_scope.py", line 330, in _true_getter
    caching_device=caching_device, validate_shape=validate_shape)
  File "/home/ubuntu/.local/lib/python2.7/site-packages/tensorflow/python/ops/variable_scope.py", line 676, in _get_single_variable
    validate_shape=validate_shape)
  File "/home/ubuntu/.local/lib/python2.7/site-packages/tensorflow/python/ops/variables.py", line 215, in __init__
    dtype=dtype)
  File "/home/ubuntu/.local/lib/python2.7/site-packages/tensorflow/python/ops/variables.py", line 288, in _init_from_args
    initial_value(), name="initial_value", dtype=dtype)
  File "/home/ubuntu/.local/lib/python2.7/site-packages/tensorflow/python/ops/variable_scope.py", line 666, in <lambda>
    shape.as_list(), dtype=dtype, partition_info=partition_info)
  File "/home/ubuntu/.local/lib/python2.7/site-packages/tensorflow/contrib/layers/python/layers/initializers.py", line 133, in _initializer
    dtype, seed=seed)
  File "/home/ubuntu/.local/lib/python2.7/site-packages/tensorflow/python/ops/random_ops.py", line 247, in random_uniform
    return math_ops.add(rnd * (maxval - minval), minval, name=name)
  File "/home/ubuntu/.local/lib/python2.7/site-packages/tensorflow/python/ops/math_ops.py", line 751, in binary_op_wrapper
    return func(x, y, name=name)
  File "/home/ubuntu/.local/lib/python2.7/site-packages/tensorflow/python/ops/math_ops.py", line 910, in _mul_dispatch
    return gen_math_ops.mul(x, y, name=name)
  File "/home/ubuntu/.local/lib/python2.7/site-packages/tensorflow/python/ops/gen_math_ops.py", line 1519, in mul
    result = _op_def_lib.apply_op("Mul", x=x, y=y, name=name)
  File "/home/ubuntu/.local/lib/python2.7/site-packages/tensorflow/python/framework/op_def_library.py", line 749, in apply_op
    op_def=op_def)
  File "/home/ubuntu/.local/lib/python2.7/site-packages/tensorflow/python/framework/ops.py", line 2380, in create_op
    original_op=self._default_original_op, op_def=op_def)
  File "/home/ubuntu/.local/lib/python2.7/site-packages/tensorflow/python/framework/ops.py", line 1298, in __init__
    self._traceback = _extract_stack()

ResourceExhaustedError (see above for traceback): OOM when allocating tensor with shape[7,7,512,4096]
	 [[Node: vgg_19/fc6/weights/Initializer/random_uniform/mul = Mul[T=DT_FLOAT, _class=["loc:@vgg_19/fc6/weights"], _device="/job:localhost/replica:0/task:0/gpu:0"](vgg_19/fc6/weights/Initializer/random_uniform/RandomUniform, vgg_19/fc6/weights/Initializer/random_uniform/sub)]]

